"Word"|"PrimaryTranslation"|"SecondaryTranslations"|"Transliteration"
"अब की बार"|"this time "||"ab kii baar"
"अवश्य"|"certainly "||"avashye"
"असंभव"|"impossible "||"asmbhav"
"आख़िर"|"after all"||"aaxir"
"आटो"|"auto-rickshaw (m.)"||"aaTo"
"आधा"|"half (m.)"||"aadhaa"
"इतना"|"so (as in “so big”)"|"so much"|"itnaa"
"इलाज"|"treatment (m.)"|"cure "|"ilaaj"
"उचित"|"proper"|"appropriate "|"ucit"
"उतारना"|"to take down"|"take off"|"utaarnaa"
"उम्मीद"|"hope (f.)"||"ummiid"
"ऊँचा"|"high "||"uuMcaa"
"कंजूस"|"miserly "|"mean "|"kanjuus"
"काँटा"|"fork (m.)"||"kaaMTaa"
"कामचोर "|"work shy "|"lazy "|"kaamcor"
"कि "|"that "||"ki"
"ख़रीदारी"|"buying "|"shopping "|"xariidaarii"
"ख़ाली करना"|"to vacate "||"xaalii karnaa"
"खींचना"|"to draw "|"take (a photo)"|"khiiMcnaa"
"ख़ुद"|"oneself "||"xud"
"गर्व"|"pride (m.)"||"garv"
"गाय"|"cow (f.)"||"gaay (gaae)"
"ग़ुस्सा"|"anger (m.)"||"gussaa"
"चपरासी"|"peon (m.)"|"orderly "|"capraasii"
"चम्मच"|"spoon (m.)"||"cammac"
"चाहना"|"to want "|"wish, be fond of "|"caahnaa"
"छुरी"|"knife (f.)"||"churii"
"ज़िम्मेदारी"|"responsibility "||"zimmedaarii"
"झूठ"|"lie (m.)"||"jhuuTH"
"टेढ़ा"|"twisted "|"complex "|"TeRHaa"
"डेढ़"|"one and a half "||"DeRH"
"तुरंत"|"immediately "||"turant"
"दाम"|"price (m.)"||"daam"
"नहीं तो "|"otherwise "||"nahiiM to"
"निवेदन "|"request (m.)"||"nivedan"
"नोट"|"note (m.)"||"noT"
"पकड़ना"|"to catch "|"grab, hold "|"pakaRnaa"
"पड़ना"|"to fall"||"paRnaa"
"पता"|"address (m.)"||"pataa"
"पता नहीं"|"don’t know "|"no idea "|"pataa nahiiM"
"पता होना "|"to know "|"be aware "|"pataa honaa"
"पानी पड़ना"|"to rain "||"paanii paRnaa"
"पुलिस"|"police (f.)"||"pulis "
"बार"|"time (f.)"|"occasion "|"baar"
"बार बार "|"time and again "||"baar baar"
"बारे में"|"about "|"concerning "|"baare meM"
"बोरियत"|"boredom (f.)"||"boriyat"
"भारी "|"heavy "||"bhaarii"
"भूल "|"mistake (f.)"||"bhuul"
"भूल करना"|"to make a mistake "||"bhuul karnaa"
"भूलना"|"to foget"|"err"|"bhuulnaa"
"मंदिर"|"temple (m.)"||"mandir "
"मक्खी"|"fly "||"makkhii"
"मक्खियाँ मारना"|"to “kill flies”"|"laze about "|"makhiyaaM maarnaa"
"मगर"|"but "||"magar"
"मदद"|"help (f.)"||"madad"
"मदद देना"|"to help "||"madad denaa"
"मामला"|"matter (m.)"|"affair "|"maamlaa"
"माहिर "|"expert "|"skilled "|"maahir"
"मेसेज"|"message (m.)"||"mesej"
"यक़ीन "|"confidence (m.)"|"faith "|"yaqiin"
"यदि"|"if "||"yadi"
"रिक्शा"|"rickshaw (m.)"||"rikshaa"
"लिस्ट"|"list (f.)"||"lisT"
"वक़्त"|"time (m.)"||"vaqt"
"वापस"|"back "||"vaapas"
"वापस आना"|"to come back"||"vaapas aanaa"
"विश्वास "|"belief (m.)"|"confidence "|"vishvaas"
"संभव"|"possible "||"sambhav"
"सफ़ाई"|"cleaning (f.)"||"safaaii"
"सलाह"|"advice (f.)"||"salaah"
"सीढ़ी"|"stair (f.)"|"staircase "|"siiRHii"
"हफ़्ता"|"week (m.)"||"haftaa"
"हाथ बँटाना"|"to lend a hand "||"haath baMTaanaa"
