|"Word"|"PrimaryTranslation"|"SecondaryTranslations"|"Transliteration"
|"आना"|"to come "||"aanaa"
|"इधर"|"here"|"over here"|"idhar"
|"उधर"|"there"|"over there"|"udhar"
|"ऋषि"|"sage (m.)"|"seer"|"RISHi"
|"कंबल"|"blanket (m.)"||"kambal"
|"करना"|"to do"||"karnaa"
|"(से) कहना"|"to say (to)"||"(se) kahnaa , kehenaa"
|"का, की, के"|"’s (indicating possession)"||"kaa, kii, ke"
|"कॉफ़ी"|"coffee (f.)"||"kaafii"
|"कुत्ता"|"dog (m.)"||"kuttaa"
|"कुरता"|"kurta (m.)"|"Indian shirt"|"kurtaa"
|"कौनसा, -सी, -से"|"which?"||"kaunsaa, -sii, -se"
|"ख़त"|"letter (m.)"||"xat"
|"ख़याल"|"opinion (m.)"||"xyaal"
|"खाना"|"to eat"||"khaanaa"
|"खिलाना"|"to serve "|"give to eat "|"khilaanaa"
|"खिलौना"|"toy (m.)"||"khilaunaa"
|"घोड़ा"|"horse (m.)"||"ghoRaa"
|"चलना"|"to move"||"calnaa"
|"चाबी"|"key (f.)"||"caabii"
|"छूना"|"to touch"||"chuunaa"
|"जगाना"|"to arouse from sleep "||"jagaanaa"
|"ज़रा"|"just"|"a little "|"zaraa"
|"जल्दी"|"quickly"|"soon, early"|"jaldii"
|"जाना"|" to go (m.)"||"jaanaa"
|"झगड़ा"|"quarrel (m.)"|"row"|"jhagRaa"
|"झगड़ा करना"|"to quarrel "||"jhagRaa karnaa"
|"ठहरना"|"to stop"|"wait"|"THaharnaa (THehernaa )"
|"ढूँढ़ना"|"to look for"|"find"|"DHuuMRHnaa (DHuuMDhnaa)"
|"तैयार"|"ready"||"tai-yaar"
|"थैला"|"bag (m.)"|"cloth bag"|"thailaa"
|"दूध"|"milk (m.)"||"duudh"
|"देखना"|"to see"|"look"|"dekhnaa"
|"देना"|"to give"||"denaa"
|"देवर"|"husband’s younger brother (m.) "||"devar"
|"धोना"|"to wash"||"dhonaa"
|"धोबी"|"dhobi (m.)"|"washerman"|"dhobii"
|"ध्यान"|"attention "||"dhyaan"
|"ध्यान से"|"attentively "||"dhyaan se"
|"न"|"don’t (in commands) "||"na / naa"
|"नारा"|"slogan (m.)"||"naaraa"
|"नौकर"|"servant (m.)"||"naukar"
|"पड़ा"|"lying"||"paRaa"
|"पढ़ना"|"to read "|"study "|"paRHnaa"
|"पानी"|"water (m.)"||"paanii"
|"पापा"|"papa (m.)"|"father"|"paapaa"
|"पीना"|"drink "|"smoke"|"piinaa"
|"(से) पूछना"|" to ask (of)"||"(se) puuchnaa"
|"पेड़"|"tree (m.)"||"peR"
|"पैसा"|"money (m.)"|"paisa (hundredth of a rupee)"|"paisaa"
|"फल"|"fruit (m.)"||"phal"
|"बंद करना"|"to close"|"shut"|"band karnaa"
|"बताना"|"to tell"||"bataanaa"
|"बुलाना"|"to call "|"invite"|"bulaanaa"
|"बैठना"|"to sit"||"baiTHnaa"
|"बोलना"|"to speak"||"bolnaa"
|"भैया"|"brother (m.)"||"bhaiyaa"
|"मत"|"don’t (with commands)"||"mat"
|"मारना"|"to beat "|"hit"|"maarnaa"
|"रखना"|"to put"|"keep"|"rakhnaa"
|"लाना"|"to bring "||"laanaa"
|"शैतान"|"devil (m.)"||"shaitaan"
|"सचमुच"|"really "||"sacmuc"
|"सरल"|"simple"||"saral"
|"साफ़ करना"|"to clean "||"saaf karnaa"
|"सिग्रेट"|"cigarette (f.)"||"sigreT"
|"सुनना"|"to listen "|"hear"|"sunnaa"
|"होना"|"to be "|"become "|"honaa"
|"तुम्हें"|"to you"||"tumheM"
|"बैठ"|"to sit"||"baiTH"
|"कहिए"|"please tell"||"kahie"
|"अाइए"|"please come"||"aaie"
|"बैठिए"|"please sit"||"baiTHie"
|"दो"|"give"||"do"
|"खान-मार्किट"|"Khan market (m.)"|"Khan market in Delhi"|"khaan-maarkiT"
|"पी"|"drink "||"pii"
|"अंकल"|"uncle (m.)"||"aNGkal"
