﻿{
  "supports": {},
  "dependencies": {
    "CsvHelper": "2.16.3",
    "HockeySDK.Xamarin": "4.1.4",
    "MvvmCross.Core": "5.0.4",
    "MvvmCross.Platform": "5.0.4",
    "MvvmCross.Plugin.Color": "5.0.4",
    "MvvmCross.Plugin.Visibility": "5.0.4",
    "sqlite-net-pcl": "1.3.3"
  },
  "frameworks": {
    ".NETPortable,Version=v4.5,Profile=Profile49": {}
  }
}